{"page":2,"per_page":6,"total":12,"total_pages":2,"data":[
"author": "Linda",
"comment_disabled": true,
"content": "ddddddddddddddddd",
"content_short": "mock data",
"display_time": "1971-03-16 07:15:33",
"forecast": 15.23,
"id": 1,
"image_uri": "https://wpimg.wallstcn.com/e4558086-631c-425c-9430-56ffb46e70b3",
"importance": 2,
"pageviews": 3516,
"platforms": ["a-platform"],
"reviewer": "Amy",
"status": "published",
"timestamp": 652197142714,
"title": "Cgs Xslpuww Oswrlvl Ifkw Lamaoqun Xtkbkvb Qwrxgnjtje",
"type": "US"
]
}
